<?xml version="1.0" encoding="UTF-8"?>
<testng-results ignored="0" total="19" passed="19" failed="0" skipped="0">
  <reporter-output>
  </reporter-output>
  <suite started-at="2022-04-12T14:54:27 BST" name="Surefire suite" finished-at="2022-04-12T14:55:08 BST" duration-ms="40502">
    <groups>
    </groups>
    <test started-at="2022-04-12T14:54:27 BST" name="Surefire test" finished-at="2022-04-12T14:55:08 BST" duration-ms="40502">
      <class name="DemoShopCartTest">
        <test-method is-config="true" signature="before()[pri:0, instance:DemoShopCartTest@77bb0ab5]" started-at="2022-04-12T14:54:27 BST" name="before" finished-at="2022-04-12T14:54:32 BST" duration-ms="4207" status="PASS">
          <reporter-output>
          </reporter-output>
        </test-method> <!-- before -->
        <test-method signature="page_object_message()[pri:0, instance:DemoShopCartTest@77bb0ab5]" started-at="2022-04-12T14:54:32 BST" name="page_object_message" finished-at="2022-04-12T14:54:32 BST" duration-ms="58" status="PASS">
          <reporter-output>
          </reporter-output>
        </test-method> <!-- page_object_message -->
        <test-method signature="verify_payment_information_method()[pri:0, instance:DemoShopCartTest@77bb0ab5]" started-at="2022-04-12T14:54:32 BST" name="verify_payment_information_method" finished-at="2022-04-12T14:54:32 BST" duration-ms="25" status="PASS">
          <reporter-output>
          </reporter-output>
        </test-method> <!-- verify_payment_information_method -->
      </class> <!-- DemoShopCartTest -->
      <class name="DemoShopHomeTest">
        <test-method is-config="true" signature="openPage()[pri:0, instance:DemoShopHomeTest@51745f40]" started-at="2022-04-12T14:54:32 BST" name="openPage" finished-at="2022-04-12T14:54:32 BST" duration-ms="204" status="PASS">
          <reporter-output>
          </reporter-output>
        </test-method> <!-- openPage -->
        <test-method signature="Perform_login_with_a_specific_account()[pri:0, instance:DemoShopHomeTest@51745f40]" started-at="2022-04-12T14:54:32 BST" name="Perform_login_with_a_specific_account" finished-at="2022-04-12T14:54:34 BST" duration-ms="2444" status="PASS">
          <reporter-output>
          </reporter-output>
        </test-method> <!-- Perform_login_with_a_specific_account -->
        <test-method is-config="true" signature="driverCleanUp()[pri:0, instance:DemoShopHomeTest@51745f40]" started-at="2022-04-12T14:54:34 BST" name="driverCleanUp" finished-at="2022-04-12T14:54:35 BST" duration-ms="189" status="PASS">
          <reporter-output>
          </reporter-output>
        </test-method> <!-- driverCleanUp -->
        <test-method is-config="true" signature="openPage()[pri:0, instance:DemoShopHomeTest@51745f40]" started-at="2022-04-12T14:54:35 BST" name="openPage" finished-at="2022-04-12T14:54:36 BST" duration-ms="1807" status="PASS">
          <reporter-output>
          </reporter-output>
        </test-method> <!-- openPage -->
        <test-method signature="cart_icon_update_upon_adding_a_product_to_cart()[pri:0, instance:DemoShopHomeTest@51745f40]" started-at="2022-04-12T14:54:36 BST" name="cart_icon_update_upon_adding_a_product_to_cart" finished-at="2022-04-12T14:54:37 BST" duration-ms="190" status="PASS">
          <reporter-output>
          </reporter-output>
        </test-method> <!-- cart_icon_update_upon_adding_a_product_to_cart -->
        <test-method is-config="true" signature="driverCleanUp()[pri:0, instance:DemoShopHomeTest@51745f40]" started-at="2022-04-12T14:54:37 BST" name="driverCleanUp" finished-at="2022-04-12T14:54:37 BST" duration-ms="184" status="PASS">
          <reporter-output>
          </reporter-output>
        </test-method> <!-- driverCleanUp -->
        <test-method is-config="true" signature="openPage()[pri:0, instance:DemoShopHomeTest@51745f40]" started-at="2022-04-12T14:54:37 BST" name="openPage" finished-at="2022-04-12T14:54:38 BST" duration-ms="1551" status="PASS">
          <reporter-output>
          </reporter-output>
        </test-method> <!-- openPage -->
        <test-method signature="checking_refresh_element()[pri:0, instance:DemoShopHomeTest@51745f40]" started-at="2022-04-12T14:54:38 BST" name="checking_refresh_element" finished-at="2022-04-12T14:54:38 BST" duration-ms="22" status="PASS">
          <reporter-output>
          </reporter-output>
        </test-method> <!-- checking_refresh_element -->
        <test-method is-config="true" signature="driverCleanUp()[pri:0, instance:DemoShopHomeTest@51745f40]" started-at="2022-04-12T14:54:38 BST" name="driverCleanUp" finished-at="2022-04-12T14:54:39 BST" duration-ms="181" status="PASS">
          <reporter-output>
          </reporter-output>
        </test-method> <!-- driverCleanUp -->
        <test-method is-config="true" signature="openPage()[pri:0, instance:DemoShopHomeTest@51745f40]" started-at="2022-04-12T14:54:39 BST" name="openPage" finished-at="2022-04-12T14:54:40 BST" duration-ms="1619" status="PASS">
          <reporter-output>
          </reporter-output>
        </test-method> <!-- openPage -->
        <test-method signature="favorites_icon_update_upon_adding_a_product_to_favorites()[pri:0, instance:DemoShopHomeTest@51745f40]" started-at="2022-04-12T14:54:40 BST" name="favorites_icon_update_upon_adding_a_product_to_favorites" finished-at="2022-04-12T14:54:41 BST" duration-ms="341" status="PASS">
          <reporter-output>
          </reporter-output>
        </test-method> <!-- favorites_icon_update_upon_adding_a_product_to_favorites -->
        <test-method is-config="true" signature="driverCleanUp()[pri:0, instance:DemoShopHomeTest@51745f40]" started-at="2022-04-12T14:54:41 BST" name="driverCleanUp" finished-at="2022-04-12T14:54:41 BST" duration-ms="138" status="PASS">
          <reporter-output>
          </reporter-output>
        </test-method> <!-- driverCleanUp -->
        <test-method is-config="true" signature="openPage()[pri:0, instance:DemoShopHomeTest@51745f40]" started-at="2022-04-12T14:54:41 BST" name="openPage" finished-at="2022-04-12T14:54:43 BST" duration-ms="1761" status="PASS">
          <reporter-output>
          </reporter-output>
        </test-method> <!-- openPage -->
        <test-method signature="gorgeous_soft_pizza_text()[pri:0, instance:DemoShopHomeTest@51745f40]" started-at="2022-04-12T14:54:43 BST" name="gorgeous_soft_pizza_text" finished-at="2022-04-12T14:54:43 BST" duration-ms="150" status="PASS">
          <reporter-output>
          </reporter-output>
        </test-method> <!-- gorgeous_soft_pizza_text -->
        <test-method is-config="true" signature="driverCleanUp()[pri:0, instance:DemoShopHomeTest@51745f40]" started-at="2022-04-12T14:54:43 BST" name="driverCleanUp" finished-at="2022-04-12T14:54:43 BST" duration-ms="167" status="PASS">
          <reporter-output>
          </reporter-output>
        </test-method> <!-- driverCleanUp -->
        <test-method is-config="true" signature="openPage()[pri:0, instance:DemoShopHomeTest@51745f40]" started-at="2022-04-12T14:54:43 BST" name="openPage" finished-at="2022-04-12T14:54:44 BST" duration-ms="1608" status="PASS">
          <reporter-output>
          </reporter-output>
        </test-method> <!-- openPage -->
        <test-method signature="products_on_page_objects()[pri:0, instance:DemoShopHomeTest@51745f40]" started-at="2022-04-12T14:54:44 BST" name="products_on_page_objects" finished-at="2022-04-12T14:54:44 BST" duration-ms="20" status="PASS">
          <reporter-output>
          </reporter-output>
        </test-method> <!-- products_on_page_objects -->
        <test-method is-config="true" signature="driverCleanUp()[pri:0, instance:DemoShopHomeTest@51745f40]" started-at="2022-04-12T14:54:44 BST" name="driverCleanUp" finished-at="2022-04-12T14:54:45 BST" duration-ms="188" status="PASS">
          <reporter-output>
          </reporter-output>
        </test-method> <!-- driverCleanUp -->
        <test-method is-config="true" signature="openPage()[pri:0, instance:DemoShopHomeTest@51745f40]" started-at="2022-04-12T14:54:45 BST" name="openPage" finished-at="2022-04-12T14:54:46 BST" duration-ms="1819" status="PASS">
          <reporter-output>
          </reporter-output>
        </test-method> <!-- openPage -->
        <test-method signature="search_button_is_looking_for_awesome_items()[pri:0, instance:DemoShopHomeTest@51745f40]" started-at="2022-04-12T14:54:47 BST" name="search_button_is_looking_for_awesome_items" finished-at="2022-04-12T14:54:47 BST" duration-ms="281" status="PASS">
          <reporter-output>
          </reporter-output>
        </test-method> <!-- search_button_is_looking_for_awesome_items -->
        <test-method is-config="true" signature="driverCleanUp()[pri:0, instance:DemoShopHomeTest@51745f40]" started-at="2022-04-12T14:54:47 BST" name="driverCleanUp" finished-at="2022-04-12T14:54:47 BST" duration-ms="177" status="PASS">
          <reporter-output>
          </reporter-output>
        </test-method> <!-- driverCleanUp -->
        <test-method is-config="true" signature="openPage()[pri:0, instance:DemoShopHomeTest@51745f40]" started-at="2022-04-12T14:54:47 BST" name="openPage" finished-at="2022-04-12T14:54:49 BST" duration-ms="1718" status="PASS">
          <reporter-output>
          </reporter-output>
        </test-method> <!-- openPage -->
        <test-method signature="verify_AwesomeGraniteChipsURL()[pri:0, instance:DemoShopHomeTest@51745f40]" started-at="2022-04-12T14:54:49 BST" name="verify_AwesomeGraniteChipsURL" finished-at="2022-04-12T14:54:49 BST" duration-ms="69" status="PASS">
          <reporter-output>
          </reporter-output>
        </test-method> <!-- verify_AwesomeGraniteChipsURL -->
        <test-method is-config="true" signature="driverCleanUp()[pri:0, instance:DemoShopHomeTest@51745f40]" started-at="2022-04-12T14:54:49 BST" name="driverCleanUp" finished-at="2022-04-12T14:54:49 BST" duration-ms="174" status="PASS">
          <reporter-output>
          </reporter-output>
        </test-method> <!-- driverCleanUp -->
        <test-method is-config="true" signature="openPage()[pri:0, instance:DemoShopHomeTest@51745f40]" started-at="2022-04-12T14:54:49 BST" name="openPage" finished-at="2022-04-12T14:54:51 BST" duration-ms="1714" status="PASS">
          <reporter-output>
          </reporter-output>
        </test-method> <!-- openPage -->
        <test-method signature="verify_cart_button()[pri:0, instance:DemoShopHomeTest@51745f40]" started-at="2022-04-12T14:54:51 BST" name="verify_cart_button" finished-at="2022-04-12T14:54:51 BST" duration-ms="87" status="PASS">
          <reporter-output>
          </reporter-output>
        </test-method> <!-- verify_cart_button -->
        <test-method is-config="true" signature="driverCleanUp()[pri:0, instance:DemoShopHomeTest@51745f40]" started-at="2022-04-12T14:54:51 BST" name="driverCleanUp" finished-at="2022-04-12T14:54:51 BST" duration-ms="191" status="PASS">
          <reporter-output>
          </reporter-output>
        </test-method> <!-- driverCleanUp -->
        <test-method is-config="true" signature="openPage()[pri:0, instance:DemoShopHomeTest@51745f40]" started-at="2022-04-12T14:54:51 BST" name="openPage" finished-at="2022-04-12T14:54:54 BST" duration-ms="2956" status="PASS">
          <reporter-output>
          </reporter-output>
        </test-method> <!-- openPage -->
        <test-method signature="verify_checkout_method_after_selecting_a_product()[pri:0, instance:DemoShopHomeTest@51745f40]" started-at="2022-04-12T14:54:54 BST" name="verify_checkout_method_after_selecting_a_product" finished-at="2022-04-12T14:54:54 BST" duration-ms="270" status="PASS">
          <reporter-output>
          </reporter-output>
        </test-method> <!-- verify_checkout_method_after_selecting_a_product -->
        <test-method is-config="true" signature="driverCleanUp()[pri:0, instance:DemoShopHomeTest@51745f40]" started-at="2022-04-12T14:54:54 BST" name="driverCleanUp" finished-at="2022-04-12T14:54:54 BST" duration-ms="225" status="PASS">
          <reporter-output>
          </reporter-output>
        </test-method> <!-- driverCleanUp -->
        <test-method is-config="true" signature="openPage()[pri:0, instance:DemoShopHomeTest@51745f40]" started-at="2022-04-12T14:54:54 BST" name="openPage" finished-at="2022-04-12T14:54:56 BST" duration-ms="1652" status="PASS">
          <reporter-output>
          </reporter-output>
        </test-method> <!-- openPage -->
        <test-method signature="verify_continue_shopping_after_selecting_a_product()[pri:0, instance:DemoShopHomeTest@51745f40]" started-at="2022-04-12T14:54:56 BST" name="verify_continue_shopping_after_selecting_a_product" finished-at="2022-04-12T14:54:56 BST" duration-ms="329" status="PASS">
          <reporter-output>
          </reporter-output>
        </test-method> <!-- verify_continue_shopping_after_selecting_a_product -->
        <test-method is-config="true" signature="driverCleanUp()[pri:0, instance:DemoShopHomeTest@51745f40]" started-at="2022-04-12T14:54:56 BST" name="driverCleanUp" finished-at="2022-04-12T14:54:57 BST" duration-ms="190" status="PASS">
          <reporter-output>
          </reporter-output>
        </test-method> <!-- driverCleanUp -->
        <test-method is-config="true" signature="openPage()[pri:0, instance:DemoShopHomeTest@51745f40]" started-at="2022-04-12T14:54:57 BST" name="openPage" finished-at="2022-04-12T14:54:58 BST" duration-ms="1639" status="PASS">
          <reporter-output>
          </reporter-output>
        </test-method> <!-- openPage -->
        <test-method signature="verify_greeting_message_is_welcome()[pri:0, instance:DemoShopHomeTest@51745f40]" started-at="2022-04-12T14:54:58 BST" name="verify_greeting_message_is_welcome" finished-at="2022-04-12T14:54:58 BST" duration-ms="76" status="PASS">
          <reporter-output>
          </reporter-output>
        </test-method> <!-- verify_greeting_message_is_welcome -->
        <test-method is-config="true" signature="driverCleanUp()[pri:0, instance:DemoShopHomeTest@51745f40]" started-at="2022-04-12T14:54:58 BST" name="driverCleanUp" finished-at="2022-04-12T14:54:58 BST" duration-ms="111" status="PASS">
          <reporter-output>
          </reporter-output>
        </test-method> <!-- driverCleanUp -->
        <test-method is-config="true" signature="openPage()[pri:0, instance:DemoShopHomeTest@51745f40]" started-at="2022-04-12T14:54:58 BST" name="openPage" finished-at="2022-04-12T14:55:00 BST" duration-ms="1632" status="PASS">
          <reporter-output>
          </reporter-output>
        </test-method> <!-- openPage -->
        <test-method signature="verify_header_is_visible()[pri:0, instance:DemoShopHomeTest@51745f40]" started-at="2022-04-12T14:55:00 BST" name="verify_header_is_visible" finished-at="2022-04-12T14:55:00 BST" duration-ms="46" status="PASS">
          <reporter-output>
          </reporter-output>
        </test-method> <!-- verify_header_is_visible -->
        <test-method is-config="true" signature="driverCleanUp()[pri:0, instance:DemoShopHomeTest@51745f40]" started-at="2022-04-12T14:55:00 BST" name="driverCleanUp" finished-at="2022-04-12T14:55:00 BST" duration-ms="144" status="PASS">
          <reporter-output>
          </reporter-output>
        </test-method> <!-- driverCleanUp -->
        <test-method is-config="true" signature="openPage()[pri:0, instance:DemoShopHomeTest@51745f40]" started-at="2022-04-12T14:55:00 BST" name="openPage" finished-at="2022-04-12T14:55:02 BST" duration-ms="1694" status="PASS">
          <reporter-output>
          </reporter-output>
        </test-method> <!-- openPage -->
        <test-method signature="verify_helpButton_is_opening_a_newWindow()[pri:0, instance:DemoShopHomeTest@51745f40]" started-at="2022-04-12T14:55:02 BST" name="verify_helpButton_is_opening_a_newWindow" finished-at="2022-04-12T14:55:02 BST" duration-ms="93" status="PASS">
          <reporter-output>
          </reporter-output>
        </test-method> <!-- verify_helpButton_is_opening_a_newWindow -->
        <test-method is-config="true" signature="driverCleanUp()[pri:0, instance:DemoShopHomeTest@51745f40]" started-at="2022-04-12T14:55:02 BST" name="driverCleanUp" finished-at="2022-04-12T14:55:02 BST" duration-ms="177" status="PASS">
          <reporter-output>
          </reporter-output>
        </test-method> <!-- driverCleanUp -->
        <test-method is-config="true" signature="openPage()[pri:0, instance:DemoShopHomeTest@51745f40]" started-at="2022-04-12T14:55:02 BST" name="openPage" finished-at="2022-04-12T14:55:04 BST" duration-ms="1616" status="PASS">
          <reporter-output>
          </reporter-output>
        </test-method> <!-- openPage -->
        <test-method signature="verify_homePage_logo()[pri:0, instance:DemoShopHomeTest@51745f40]" started-at="2022-04-12T14:55:04 BST" name="verify_homePage_logo" finished-at="2022-04-12T14:55:04 BST" duration-ms="75" status="PASS">
          <reporter-output>
          </reporter-output>
        </test-method> <!-- verify_homePage_logo -->
        <test-method is-config="true" signature="driverCleanUp()[pri:0, instance:DemoShopHomeTest@51745f40]" started-at="2022-04-12T14:55:04 BST" name="driverCleanUp" finished-at="2022-04-12T14:55:04 BST" duration-ms="168" status="PASS">
          <reporter-output>
          </reporter-output>
        </test-method> <!-- driverCleanUp -->
        <test-method is-config="true" signature="openPage()[pri:0, instance:DemoShopHomeTest@51745f40]" started-at="2022-04-12T14:55:04 BST" name="openPage" finished-at="2022-04-12T14:55:06 BST" duration-ms="1788" status="PASS">
          <reporter-output>
          </reporter-output>
        </test-method> <!-- openPage -->
        <test-method signature="verify_login_button()[pri:0, instance:DemoShopHomeTest@51745f40]" started-at="2022-04-12T14:55:06 BST" name="verify_login_button" finished-at="2022-04-12T14:55:06 BST" duration-ms="54" status="PASS">
          <reporter-output>
          </reporter-output>
        </test-method> <!-- verify_login_button -->
        <test-method is-config="true" signature="driverCleanUp()[pri:0, instance:DemoShopHomeTest@51745f40]" started-at="2022-04-12T14:55:06 BST" name="driverCleanUp" finished-at="2022-04-12T14:55:06 BST" duration-ms="179" status="PASS">
          <reporter-output>
          </reporter-output>
        </test-method> <!-- driverCleanUp -->
        <test-method is-config="true" signature="openPage()[pri:0, instance:DemoShopHomeTest@51745f40]" started-at="2022-04-12T14:55:06 BST" name="openPage" finished-at="2022-04-12T14:55:08 BST" duration-ms="1496" status="PASS">
          <reporter-output>
          </reporter-output>
        </test-method> <!-- openPage -->
        <test-method signature="verify_wishlist_icon()[pri:0, instance:DemoShopHomeTest@51745f40]" started-at="2022-04-12T14:55:08 BST" name="verify_wishlist_icon" finished-at="2022-04-12T14:55:08 BST" duration-ms="69" status="PASS">
          <reporter-output>
          </reporter-output>
        </test-method> <!-- verify_wishlist_icon -->
        <test-method is-config="true" signature="driverCleanUp()[pri:0, instance:DemoShopHomeTest@51745f40]" started-at="2022-04-12T14:55:08 BST" name="driverCleanUp" finished-at="2022-04-12T14:55:08 BST" duration-ms="155" status="PASS">
          <reporter-output>
          </reporter-output>
        </test-method> <!-- driverCleanUp -->
      </class> <!-- DemoShopHomeTest -->
    </test> <!-- Surefire test -->
  </suite> <!-- Surefire suite -->
</testng-results>
